### TEMPLATE FOR AWA Performance Input Method
/usr/bin/rrdtool create \
AWA_Performance_IM.rrd \
--step 60  \
--start 1283938284 \
DS:time:GAUGE:120:0:U \
RRA:AVERAGE:0.5:1:89280 \
RRA:AVERAGE:0.5:2:12960 \
RRA:AVERAGE:0.5:6:17520 \
RRA:AVERAGE:0.5:12:17520 \
RRA:MIN:0.5:1:89280 \
RRA:MIN:0.5:2:12960 \
RRA:MIN:0.5:6:17520 \
RRA:MIN:0.5:12:17520 \
RRA:MAX:0.5:1:89280 \
RRA:MAX:0.5:2:12960 \
RRA:MAX:0.5:6:17520 \
RRA:MAX:0.5:12:17520 \
RRA:LAST:0.5:1:89280 \
RRA:LAST:0.5:2:12960 \
RRA:LAST:0.5:6:17520 \
RRA:LAST:0.5:12:17520 \

### TEMPLATE FOR Operation/Page Performance Input Method
# Version 01. Standard 5 ranges without cache
/usr/bin/rrdtool create \
OperationPage_Performance_IM.rrd \
--step 60  \
--start 1283938284 \
DS:totalCount:GAUGE:120:0:U \
DS:averageTime:GAUGE:120:0:U \
DS:TOCount:GAUGE:120:0:U \
DS:countP1:GAUGE:120:0:U \
DS:countP2:GAUGE:120:0:U \
DS:countP3:GAUGE:120:0:U \
DS:countP4:GAUGE:120:0:U \
DS:countP5:GAUGE:120:0:U \
RRA:AVERAGE:0.5:1:89280 \
RRA:AVERAGE:0.5:2:12960 \
RRA:AVERAGE:0.5:6:17520 \
RRA:AVERAGE:0.5:12:17520 \
RRA:MIN:0.5:1:89280 \
RRA:MIN:0.5:2:12960 \
RRA:MIN:0.5:6:17520 \
RRA:MIN:0.5:12:17520 \
RRA:MAX:0.5:1:89280 \
RRA:MAX:0.5:2:12960 \
RRA:MAX:0.5:6:17520 \
RRA:MAX:0.5:12:17520 \
RRA:LAST:0.5:1:89280 \
RRA:LAST:0.5:2:12960 \
RRA:LAST:0.5:6:17520 \
RRA:LAST:0.5:12:17520 \

# Version 02. Added cache
/usr/bin/rrdtool create \
Op_Performance_IM.rrd \
--step 60  \
--start 1283938284 \
DS:totalCount:GAUGE:120:0:U \
DS:averageTime:GAUGE:120:0:U \
DS:TOCount:GAUGE:120:0:U \
DS:countP1:GAUGE:120:0:U \
DS:countP2:GAUGE:120:0:U \
DS:countP3:GAUGE:120:0:U \
DS:countP4:GAUGE:120:0:U \
DS:countP5:GAUGE:120:0:U \
DS:countCache:GAUGE:120:0:U \
RRA:AVERAGE:0.5:1:89280 \
RRA:AVERAGE:0.5:2:12960 \
RRA:AVERAGE:0.5:6:17520 \
RRA:AVERAGE:0.5:12:17520 \
RRA:MIN:0.5:1:89280 \
RRA:MIN:0.5:2:12960 \
RRA:MIN:0.5:6:17520 \
RRA:MIN:0.5:12:17520 \
RRA:MAX:0.5:1:89280 \
RRA:MAX:0.5:2:12960 \
RRA:MAX:0.5:6:17520 \
RRA:MAX:0.5:12:17520 \
RRA:LAST:0.5:1:89280 \
RRA:LAST:0.5:2:12960 \
RRA:LAST:0.5:6:17520 \
RRA:LAST:0.5:12:17520 \

### TEMPLATE FOR Page Access Input Method
/usr/bin/rrdtool create \
Page_Access_IM.rrd \
--step 60  \
--start 1283938284 \
DS:totalCount:GAUGE:120:0:U \
DS:count200:GAUGE:120:0:U \
DS:count302:GAUGE:120:0:U \
DS:count403:GAUGE:120:0:U \
DS:count404:GAUGE:120:0:U \
DS:count500:GAUGE:120:0:U \
RRA:AVERAGE:0.5:1:89280 \
RRA:AVERAGE:0.5:2:12960 \
RRA:AVERAGE:0.5:6:17520 \
RRA:AVERAGE:0.5:12:17520 \
RRA:MIN:0.5:1:89280 \
RRA:MIN:0.5:2:12960 \
RRA:MIN:0.5:6:17520 \
RRA:MIN:0.5:12:17520 \
RRA:MAX:0.5:1:89280 \
RRA:MAX:0.5:2:12960 \
RRA:MAX:0.5:6:17520 \
RRA:MAX:0.5:12:17520 \
RRA:LAST:0.5:1:89280 \
RRA:LAST:0.5:2:12960 \
RRA:LAST:0.5:6:17520 \
RRA:LAST:0.5:12:17520 \

### TEMPLATE FOR PPOW Campaing Qualifications Input Method
/usr/bin/rrdtool create \
PPOW_Campaing_Qualifications_IM.rrd \
--step 60  \
--start 1283938284 \
DS:count5306740234:GAUGE:120:0:U \
DS:count5306740294:GAUGE:120:0:U \
RRA:AVERAGE:0.5:1:89280 \
RRA:AVERAGE:0.5:2:12960 \
RRA:AVERAGE:0.5:6:17520 \
RRA:AVERAGE:0.5:12:17520 \
RRA:MIN:0.5:1:89280 \
RRA:MIN:0.5:2:12960 \
RRA:MIN:0.5:6:17520 \
RRA:MIN:0.5:12:17520 \
RRA:MAX:0.5:1:89280 \
RRA:MAX:0.5:2:12960 \
RRA:MAX:0.5:6:17520 \
RRA:MAX:0.5:12:17520 \
RRA:LAST:0.5:1:89280 \
RRA:LAST:0.5:2:12960 \
RRA:LAST:0.5:6:17520 \
RRA:LAST:0.5:12:17520 \

### TEMPLATE FOR WL Thread Monitoring Input Method
/usr/bin/rrdtool create \
WL_Thread_Monitoring_IM.rrd \
--step 60  \
--start 1283938284 \
DS:activeThreads:GAUGE:120:0:U \
DS:executeTotal:GAUGE:120:0:U \
DS:executeIdle:GAUGE:120:0:U \
DS:standbyThreads:GAUGE:120:0:U \
DS:hoogingThreads:GAUGE:120:0:U \
DS:completedRequests:COUNTER:120:0:U \
DS:pendingRequests:GAUGE:120:0:U \
DS:queueLength:GAUGE:120:0:U \
DS:throughput:GAUGE:120:0:U \
RRA:AVERAGE:0.5:1:89280 \
RRA:AVERAGE:0.5:2:12960 \
RRA:AVERAGE:0.5:6:17520 \
RRA:AVERAGE:0.5:12:17520 \
RRA:MIN:0.5:1:89280 \
RRA:MIN:0.5:2:12960 \
RRA:MIN:0.5:6:17520 \
RRA:MIN:0.5:12:17520 \
RRA:MAX:0.5:1:89280 \
RRA:MAX:0.5:2:12960 \
RRA:MAX:0.5:6:17520 \
RRA:MAX:0.5:12:17520 \
RRA:LAST:0.5:1:89280 \
RRA:LAST:0.5:2:12960 \
RRA:LAST:0.5:6:17520 \
RRA:LAST:0.5:12:17520 \

### TEMPLATE FOR WL Memory Usage Input Method
/usr/bin/rrdtool create \
WL_MemoryUse_IM.rrd \
--step 600  \
--start 1283938284 \
DS:pctMemoryFree:GAUGE:1800:0:U \
RRA:AVERAGE:0.5:1:89280 \
RRA:AVERAGE:0.5:2:12960 \
RRA:AVERAGE:0.5:6:17520 \
RRA:AVERAGE:0.5:12:17520 \
RRA:MIN:0.5:1:89280 \
RRA:MIN:0.5:2:12960 \
RRA:MIN:0.5:6:17520 \
RRA:MIN:0.5:12:17520 \
RRA:MAX:0.5:1:89280 \
RRA:MAX:0.5:2:12960 \
RRA:MAX:0.5:6:17520 \
RRA:MAX:0.5:12:17520 \
RRA:LAST:0.5:1:89280 \
RRA:LAST:0.5:2:12960 \
RRA:LAST:0.5:6:17520 \
RRA:LAST:0.5:12:17520 \

### TEMPLATE FOR WL DataSource
/usr/bin/rrdtool create \
WL_DataSource_IM.rrd \
--step 60  \
--start 1283938284 \
DS:ActiveConnectionsCC:GAUGE:120:0:U \
DS:ActiveConnectionsHC:GAUGE:120:0:U \
DS:ConnectionDelayTime:GAUGE:120:0:U \
DS:ConnectionsTC:GAUGE:120:0:U \
DS:CurrCapacity:GAUGE:120:0:U \
DS:CurrCapacityHC:GAUGE:120:0:U \
DS:FailedReserveRQC:GAUGE:120:0:U \
DS:FailuresToReconnect:GAUGE:120:0:U \
DS:ConnAvailable:GAUGE:120:0:U \
DS:ConnUnavailable:GAUGE:120:0:U \
DS:WaitingConnectionCC:GAUGE:120:0:U \
DS:WaitingConnectionHC:GAUGE:120:0:U \
RRA:AVERAGE:0.5:1:89280 \
RRA:AVERAGE:0.5:2:12960 \
RRA:AVERAGE:0.5:6:17520 \
RRA:AVERAGE:0.5:12:17520 \
RRA:MIN:0.5:1:89280 \
RRA:MIN:0.5:2:12960 \
RRA:MIN:0.5:6:17520 \
RRA:MIN:0.5:12:17520 \
RRA:MAX:0.5:1:89280 \
RRA:MAX:0.5:2:12960 \
RRA:MAX:0.5:6:17520 \
RRA:MAX:0.5:12:17520 \
RRA:LAST:0.5:1:89280 \
RRA:LAST:0.5:2:12960 \
RRA:LAST:0.5:6:17520 \
RRA:LAST:0.5:12:17520 \

### TEMPLATE FOR Error Accounting Input Method
/usr/bin/rrdtool create \
Error_Accounting_IM.rrd \
--step 60  \
--start 1283938284 \
DS:E1:GAUGE:120:0:U \
DS:E2:GAUGE:120:0:U \
DS:E3:GAUGE:120:0:U \
DS:E4:GAUGE:120:0:U \
DS:E5:GAUGE:120:0:U \
DS:E6:GAUGE:120:0:U \
DS:E7:GAUGE:120:0:U \
DS:E8:GAUGE:120:0:U \
DS:E9:GAUGE:120:0:U \
DS:E10:GAUGE:120:0:U \
DS:E11:GAUGE:120:0:U \
DS:E12:GAUGE:120:0:U \
RRA:AVERAGE:0.5:1:89280 \
RRA:AVERAGE:0.5:2:12960 \
RRA:AVERAGE:0.5:6:17520 \
RRA:AVERAGE:0.5:12:17520 \
RRA:MIN:0.5:1:89280 \
RRA:MIN:0.5:2:12960 \
RRA:MIN:0.5:6:17520 \
RRA:MIN:0.5:12:17520 \
RRA:MAX:0.5:1:89280 \
RRA:MAX:0.5:2:12960 \
RRA:MAX:0.5:6:17520 \
RRA:MAX:0.5:12:17520 \
RRA:LAST:0.5:1:89280 \
RRA:LAST:0.5:2:12960 \
RRA:LAST:0.5:6:17520 \
RRA:LAST:0.5:12:17520 \

### Template for "Host VMStat Input Method"
/usr/bin/rrdtool create \
Host_VMStat_IM.rrd \
--step 60  \
--start 1283938284 \
DS:Runnable:GAUGE:120:0:U \
DS:Blocked:GAUGE:120:0:U \
DS:Swap:GAUGE:120:0:U \
DS:Free:GAUGE:120:0:U \
DS:Buffers:GAUGE:120:0:U \
DS:Cache:GAUGE:120:0:U \
DS:SwapIn:GAUGE:120:0:U \
DS:SwapOut:GAUGE:120:0:U \
DS:BlockIn:GAUGE:120:0:U \
DS:BlockOut:GAUGE:120:0:U \
DS:Interrupts:GAUGE:120:0:U \
DS:ContextSw:GAUGE:120:0:U \
DS:UserCPU:GAUGE:120:0:U \
DS:SystemCPU:GAUGE:120:0:100 \
DS:IdleCPU:GAUGE:120:0:U \
DS:WaitingCPU:GAUGE:120:0:U \
DS:StolenCPU:GAUGE:120:0:U \
RRA:AVERAGE:0.5:1:89280 \
RRA:AVERAGE:0.5:2:12960 \
RRA:AVERAGE:0.5:6:17520 \
RRA:AVERAGE:0.5:12:17520 \
RRA:MIN:0.5:1:89280 \
RRA:MIN:0.5:2:12960 \
RRA:MIN:0.5:6:17520 \
RRA:MIN:0.5:12:17520 \
RRA:MAX:0.5:1:89280 \
RRA:MAX:0.5:2:12960 \
RRA:MAX:0.5:6:17520 \
RRA:MAX:0.5:12:17520 \
RRA:LAST:0.5:1:89280 \
RRA:LAST:0.5:2:12960 \
RRA:LAST:0.5:6:17520 \
RRA:LAST:0.5:12:17520 \

