O;Chart;teeword.cht;  15.05036;-114.28716;  15.36835
A;gridcolor=$00C0C0C0

O;Chart;teeword.cht;  15.05036;-114.28716;  15.36835
A;gridcolor=$00C0C0C0

O;Chart;teeword.cht;  15.05036;-114.28716;  15.36835
A;gridcolor=$00C0C0C0

O;Route;Conchin-Singapore
A;Color=$00669933
A;Visible=FALSE
A;Linewidth=1
A;ShowText=FALSE
P;   9.95177; -75.93588;
P;   9.11592; -75.97992;
P;   8.01613; -76.50836;
P;   6.60839; -77.30103;
P;   4.71674; -79.19464;
P;   4.10086; -80.42768;
P;   4.18884; -83.24607;
P;   4.84872; -85.40389;
P;   5.68456; -88.70669;
P;   5.94851; -90.33607;
P;   6.30045; -92.84620;
P;   6.47642; -94.60769;
P;   6.38843; -96.32514;
P;   5.68456; -97.95452;
P;   4.27683; -99.58390;
P;   3.22102;-100.50868;
P;   2.69312;-101.08117;
P;   2.12123;-101.96191;
P;   1.41736;-102.88670;
P;   1.28539;-103.59129;

O;Route;R_PolarTest
A;Color=$0000CC99
A;Visible=FALSE
A;Linewidth=1
A;ShowText=TRUE
P;   5.57198; -95.74680;
P;   6.30863; -96.49460;
P;   5.96113; -96.75830;
P;   6.81786; -97.82250;
P;   6.17574; -98.29230;
P;   5.45452; -98.48750;
P;   5.32890; -98.67320;
P;   3.90876; -99.49440;
P;   3.77889; -99.61470;
P;   3.47150; -99.72820;
P;   3.43220;-100.28500;
P;   3.29879;-100.61700;
P;   2.06415;-101.98900;
P;   2.06348;-102.46800;
P;   1.84598;-102.64400;
P;   1.68644;-102.86600;
P;   2.29279;-101.21100;
P;   2.64062;-100.96000;
P;   2.64062;-100.96000;
P;   2.64062;-100.96000;
P;   2.64062;-100.96000;
P;   2.64062;-100.25100;
P;   2.49845;-100.75800;
P;   2.47503;-100.97500;
P;   2.11988;-101.65100;
P;   1.08874;-102.98600;

O;Route;DirectLeg4.1A
A;Color=$00FFCC00
A;Visible=TRUE
A;Linewidth=1
A;ShowText=TRUE
P;   4.13851;-109.50000;START
P;   4.13851;-109.50000;W1
P;   4.50000;-109.91185;W2
P;   5.01625;-110.50000;W3
P;   5.50000;-111.05113;W4
P;   5.89399;-111.50000;W5
P;   6.50000;-112.19042;W6
P;   6.60000;-112.51667;W7
P;   6.85833;-112.50000;W8
P;   7.50000;-112.45860;W9
P;   8.50000;-112.39409;W10
P;   9.21667;-113.53333;START
P;   9.50000;-113.59167;W1
P;  10.50000;-113.79755;W2
P;  11.48333;-114.00000;W3

O;Route;OptimizedLeg4.1
A;Color=$0000FF00
A;Visible=FALSE
A;Linewidth=1
A;ShowText=TRUE
P;   4.13851;-109.50000;START
P;   4.13851;-109.50000;W1
P;   4.50000;-109.91185;W2
P;   5.01625;-110.50000;W3
P;   5.50000;-111.05113;W4
P;   5.84399;-111.50000;W5
P;   6.50000;-112.50000;W6
P;   7.43333;-112.50000;W7
P;   7.50000;-113.50000;W8
P;   7.50000;-113.50000;W9
P;   8.48333;-114.45000;W10
P;   9.21667;-113.53333;START
P;   9.50000;-113.59167;W1
P;  10.50000;-113.76422;W2
P;  11.48333;-114.00000;W3

O;Route;NextRoute
A;Color=$0000FF00
A;Visible=TRUE
A;Linewidth=2
A;ShowText=TRUE
P;  13.80000;-113.75000;N1
P;  14.50000;-113.60121;N2
P;  14.86080;-114.50000;N3

O;Route;R_CorteIngles COA
A;Color=$00FFFFFF
A;Visible=FALSE
A;Linewidth=1
A;ShowText=FALSE
P;   0.67628;-105.03600;
P;   0.77407;-105.51100;
P;   0.96883;-105.87500;
P;   1.22582;-106.35000;
P;   1.57494;-106.91300;
P;   1.85865;-107.32700;
P;   2.10314;-107.65800;
P;   2.33348;-108.02900;
P;   2.72806;-108.87500;
P;   2.72806;-108.87500;
P;   2.64616;-108.89600;
P;   2.75773;-109.31400;
P;   2.92358;-109.71100;

O;Route;R_luis2007
A;Color=$00FFFFFF
A;Visible=TRUE
A;Linewidth=1
A;ShowText=FALSE
P;   0.75682;-105.10700;
P;   1.39919;-106.11100;
P;   1.68186;-106.55100;
P;   2.00366;-107.02900;
P;   2.28968;-107.45600;
P;   2.51144;-107.80000;
P;   3.07031;-108.60600;
P;   3.56753;-109.24800;
P;   3.80131;-109.54200;
P;   4.49791;-110.33400;
P;   4.99072;-110.76400;
P;   5.80470;-111.62800;
P;   6.15461;-111.92800;
P;   6.52676;-112.24700;
P;   7.73456;-111.89800;
P;   8.35128;-111.56000;
P;   9.25156;-111.17300;
P;  10.19860;-110.79300;

O;Route;Singapore-Qingdao
A;Color=$000066FF
A;Visible=TRUE
A;Linewidth=2
A;ShowText=FALSE
P;   0.66667;-105.00000;
P;   2.62667;-106.09383;
P;   4.57950;-107.18750;
P;   6.52017;-108.28133;
P;   8.44350;-109.37500;
P;  10.34483;-110.46883;
P;  12.21983;-111.56250;
P;  14.06450;-112.65633;
P;  15.87483;-113.75000;
P;  17.64800;-114.84383;
P;  19.38100;-115.93750;
P;  21.07150;-117.03133;
P;  22.71750;-118.12500;
P;  24.31767;-119.21883;
P;  25.87083;-120.31250;
P;  27.37617;-121.40633;
P;  28.83333;-122.30000;
P;  29.48317;-122.45000;
P;  30.12467;-122.40000;
P;  30.75800;-122.35000;
P;  31.38317;-122.30000;
P;  32.00000;-122.16667;
P;  32.69483;-121.94450;
P;  33.37833;-121.63883;
P;  34.05050;-121.33333;
P;  34.71150;-121.02783;
P;  35.36133;-120.72217;
P;  36.00000;-120.41667;

O;Route;R_chusa
A;Color=$00CCFFCC
A;Visible=TRUE
A;Linewidth=1
A;ShowText=FALSE
P;   0.67628;-105.03600;
P;   0.99979;-105.52800;
P;   1.53478;-106.26000;
P;   1.74229;-106.54300;
P;   6.54912;-112.93100;
P;   7.32644;-112.75700;
P;   7.62564;-112.78900;
P;   7.88918;-113.34400;
P;   8.23212;-113.49000;
P;   8.50743;-113.59200;
P;   8.69883;-114.51600;
P;   9.07807;-114.51400;
P;   9.41260;-114.61700;
P;  10.43980;-114.88100;
P;  10.84700;-114.95300;
P;  12.61270;-114.93800;
P;  13.30750;-114.87000;

O;Route;R_Bocarte
A;Color=$00FFFFFF
A;Visible=TRUE
A;Linewidth=1
A;ShowText=FALSE
P;   0.70039;-105.04100;
P;   1.39391;-106.29800;
P;   2.13571;-107.38600;
P;   2.43870;-107.78900;
P;   2.54860;-107.87300;
P;   2.54860;-107.87300;
P;   2.54860;-107.87300;
P;   2.54860;-107.87300;
P;   2.54860;-107.87300;
P;   3.78059;-109.11200;
P;   4.06936;-109.45400;
P;   4.90115;-110.49000;
P;   6.08710;-111.94200;
P;   6.42019;-112.37300;
P;   6.71957;-112.52500;
P;   7.12865;-112.28400;
P;   7.54209;-112.07400;
P;   8.21295;-111.83600;
P;   8.88177;-113.51400;
P;   9.25130;-113.55100;
P;   9.64140;-113.64200;
P;  10.34460;-113.78500;
P;  10.76150;-113.87200;
P;  11.14740;-113.89300;
P;  11.54780;-113.83200;
P;  13.13560;-113.75400;
P;  13.56320;-113.81700;
P;  14.22750;-113.66400;

O;Track;VORG Leg4
A;Color=$000066FF
A;Visible=FALSE
A;Linewidth=3
A;ShowText=FALSE
P;   1.23544;-103.63969;;30/12/1899
P;   1.31666;-104.33333;;30/12/1899
P;  10.00000;-112.00000;;30/12/1899
P;  10.58333;-114.55000;;30/12/1899
P;  12.93333;-116.73333;;30/12/1899
P;  17.61667;-119.96667;;30/12/1899

O;URL;Singapore;   0.66667;-105.00000;   0.10000;;INFO

O;URL;Qingdao;  36.00000;-120.41667;   0.10000;;INFO

O;URL;Cochin;   9.96954; -76.05136;   0.10000;;INFO

